<?xml version="1.0" encoding="UTF-8" standalone="no"?>
<svg
   xmlns:dc="http://purl.org/dc/elements/1.1/"
   xmlns:cc="http://creativecommons.org/ns#"
   xmlns:rdf="http://www.w3.org/1999/02/22-rdf-syntax-ns#"
   xmlns:svg="http://www.w3.org/2000/svg"
   xmlns="http://www.w3.org/2000/svg"
   xmlns:xlink="http://www.w3.org/1999/xlink"
   xmlns:sodipodi="http://sodipodi.sourceforge.net/DTD/sodipodi-0.dtd"
   xmlns:inkscape="http://www.inkscape.org/namespaces/inkscape"
   sodipodi:docname="logo.svg"
   inkscape:version="1.0 (6e3e5246a0, 2020-05-07)"
   id="svg8"
   version="1.1"
   viewBox="0 0 285.74999 285.75001"
   height="1080"
   width="1080">
  <defs
     id="defs2">
    <linearGradient
       inkscape:collect="always"
       id="linearGradient3240">
      <stop
         style="stop-color:#f7ff00;stop-opacity:1"
         offset="0"
         id="stop3236" />
      <stop
         style="stop-color:#ff0005;stop-opacity:0"
         offset="1"
         id="stop3238" />
    </linearGradient>
    <radialGradient
       gradientUnits="userSpaceOnUse"
       gradientTransform="matrix(2.5229496,0,0,3.4553666,-961.23973,-1035.4177)"
       r="86.054138"
       fy="421.69577"
       fx="631.16974"
       cy="421.69577"
       cx="631.16974"
       id="radialGradient3224"
       xlink:href="#linearGradient3240"
       inkscape:collect="always" />
    <radialGradient
       gradientUnits="userSpaceOnUse"
       gradientTransform="matrix(2.7087128,0,0,3.5503472,-767.70034,-1075.1453)"
       r="86.212852"
       fy="421.56821"
       fx="449.28577"
       cy="421.56821"
       cx="449.28577"
       id="radialGradient3234"
       xlink:href="#linearGradient3240"
       inkscape:collect="always" />
  </defs>
  <sodipodi:namedview
     inkscape:window-maximized="1"
     inkscape:window-y="27"
     inkscape:window-x="1920"
     inkscape:window-height="1016"
     inkscape:window-width="1920"
     units="px"
     showgrid="false"
     inkscape:document-rotation="0"
     inkscape:current-layer="layer1"
     inkscape:document-units="mm"
     inkscape:cy="502.82095"
     inkscape:cx="355.06237"
     inkscape:zoom="0.7"
     inkscape:pageshadow="2"
     inkscape:pageopacity="0.0"
     borderopacity="1.0"
     bordercolor="#666666"
     pagecolor="#ffffff"
     id="base" />
  <metadata
     id="metadata5">
    <rdf:RDF>
      <cc:Work
         rdf:about="">
        <dc:format>image/svg+xml</dc:format>
        <dc:type
           rdf:resource="http://purl.org/dc/dcmitype/StillImage" />
        <dc:title></dc:title>
      </cc:Work>
    </rdf:RDF>
  </metadata>
  <g
     id="layer1"
     inkscape:groupmode="layer"
     inkscape:label="Layer 1">
    <path
       d=""
       id="path44"
       style="fill:#000000;stroke-width:0.264583" />
    <path
       d=""
       id="path40"
       style="fill:#000000;stroke-width:1.29491" />
    <path
       d=""
       id="path38"
       style="fill:#000000;stroke-width:1.29491" />
    <g
       transform="translate(5.4413449e-5,10.399224)"
       id="g1063">
      <g
         id="g1040"
         transform="translate(0,-25.929177)">
        <path
           sodipodi:nodetypes="sssssccsssscssssscssssssscsssssscsssssssssscccssssscscsssssssssssssssssssssssssssssssssscssscscssssssssssssssssssssssssssssssssssssssssssssssscc"
           style="fill:#000000;stroke-width:0.597773"
           d="m 121.00267,177.38762 c -3.34943,-1.00941 -7.70805,-4.5471 -8.82657,-7.16416 -0.45553,-1.06575 -0.82821,-2.86902 -0.82821,-4.00723 0,-1.85212 -0.3355,-2.2793 -3.19512,-4.06758 -6.21222,-3.88488 -8.97957,-8.45741 -9.36503,-15.47388 -0.20337,-3.7037 -0.007,-5.37687 0.91037,-7.72111 l 1.17009,-2.99276 -2.85454,-3.03489 c -3.383779,-3.59758 -4.803203,-7.23559 -4.803203,-12.31067 0,-4.84979 2.703723,-10.19633 6.654703,-13.15957 1.94944,-1.46209 2.66199,-2.38738 2.5239,-3.27756 -0.10574,-0.68217 -0.23375,-3.10209 -0.28431,-5.377601 -0.10711,-4.825806 1.08814,-7.564485 4.8087,-11.016839 2.65098,-2.459901 5.02671,-3.733847 8.06192,-4.323136 3.64131,-0.706962 3.94361,-0.867654 5.03741,-2.677836 1.32029,-2.18503 5.31356,-4.492579 8.69452,-5.024268 3.62417,-0.569893 8.71795,1.009214 11.67229,3.618499 l 2.38011,2.102135 2.56645,-2.147581 c 6.38027,-5.33897 15.42337,-4.742476 20.35322,1.342545 1.44795,1.787259 2.43252,2.39695 4.35647,2.697712 9.26692,1.448648 15.78567,10.886976 13.3864,19.38175 -0.59316,2.10009 -0.54776,2.18445 2.609,4.84875 4.41854,3.72922 6.5083,7.98827 6.5083,13.26407 0,4.95633 -1.48873,8.44802 -5.30059,12.43194 l -2.79001,2.91593 1.29994,3.75264 c 2.89326,8.35217 -0.54309,16.87814 -9.06217,22.48447 -1.84026,1.21106 -2.08547,1.68374 -2.19277,4.2268 -0.16023,3.79754 -2.55306,7.07808 -6.92,9.48725 -3.10487,1.7129 -3.7258,1.83446 -9.37101,1.83446 -6.67937,0 -9.53269,-0.97243 -13.4058,-4.56875 l -1.91876,-1.78165 -2.24027,2.12696 c -4.33976,4.12033 -12.78938,5.67428 -19.63543,3.61116 z m 15.19152,-3.63518 c 4.67398,-2.58147 5.44679,-4.35067 5.24448,-12.00614 -0.15429,-5.83806 -0.23569,-6.19372 -1.37317,-6.00003 -3.45604,0.5885 -6.53175,0.76374 -7.82697,0.44595 -2.09649,-0.51439 -5.17153,-3.74054 -5.17153,-5.42563 0,-2.02536 0.9131,-1.7862 3.5581,0.93201 1.97674,2.03143 2.66055,2.36416 4.85895,2.36416 2.02162,0 2.92921,-0.36248 4.32567,-1.72765 l 1.76723,-1.72766 v -22.17651 -22.17646 l -1.38025,-1.56869 c -1.01371,-1.15209 -2.14212,-1.65263 -4.24907,-1.88479 -2.74396,-0.30236 -2.97225,-0.20976 -5.24592,2.12677 -1.3074,1.34359 -2.66007,2.44288 -3.0059,2.44288 -1.41826,0 -0.51383,-2.83227 1.52001,-4.76011 1.99228,-1.88846 2.42161,-2.03424 5.89467,-2.00179 2.06022,0.02 4.358,0.24976 5.10616,0.51222 l 1.3603,0.47719 v -8.593644 c 0,-8.414073 -0.0332,-8.632215 -1.5875,-10.438067 -3.54433,-4.117859 -10.40272,-5.466646 -14.73618,-2.898041 -3.52465,2.089178 -3.79875,3.012084 -1.2064,4.061805 2.86211,1.158964 5.43846,4.408665 5.43846,6.859756 0,1.643856 -0.21823,2.050343 -1.01984,1.899424 -0.56087,-0.105738 -1.23508,-1.00415 -1.4982,-1.996787 -0.2631,-0.992637 -1.18715,-2.455055 -2.05344,-3.249827 -1.37397,-1.260543 -2.12823,-1.442336 -5.9079,-1.423857 -9.92403,0.04846 -16.34917,7.638638 -13.98323,16.518598 0.48617,1.82474 0.88395,3.52588 0.88395,3.78037 0,0.25446 -1.31953,1.29853 -2.93231,2.32014 -8.366669,5.29998 -9.728802,16.01077 -2.92723,23.01744 1.02558,1.0565 2.08258,1.92089 2.3489,1.92089 0.26634,0 1.50526,-0.89575 2.75317,-1.99055 2.98468,-2.61845 6.76402,-4.44724 10.11997,-4.89693 1.4938,-0.20015 2.99905,-0.69735 3.345,-1.10489 0.90082,-1.06109 -2.02333,-4.28278 -4.44372,-4.89589 -1.0526,-0.26666 -2.0022,-0.93347 -2.11022,-1.4818 -0.35568,-1.80548 3.74316,-1.28804 6.14798,0.77613 2.28507,1.96134 3.50752,2.20493 4.60106,0.91677 0.39984,-0.47098 1.68538,-1.16555 2.85679,-1.54345 1.77873,-0.57392 2.28651,-0.534 3.08026,0.24197 0.8642,0.84484 0.7077,1.03157 -1.72473,2.05793 -3.56945,1.50613 -4.93181,3.10891 -5.00641,5.88988 -0.0825,3.07552 1.52528,5.27074 4.8942,6.68249 2.43857,1.02187 2.67739,1.2756 1.90829,2.0275 -2.01511,1.96995 -7.70568,-1.48814 -9.06245,-5.50718 -0.67571,-2.00158 -0.74176,-2.03498 -3.33544,-1.68746 -6.18956,0.82938 -12.52461,5.96186 -14.48664,11.73674 -1.38762,4.08416 -0.8948,8.9116 1.31496,12.88076 3.32242,5.96764 8.61237,8.77201 17.52772,9.292 4.4958,0.26221 6.20233,0.61557 7.68248,1.59068 2.46052,1.62102 3.99027,4.18144 3.04835,5.10223 -0.50573,0.4944 -1.18886,0.12126 -2.64771,-1.44588 -2.10908,-2.26585 -2.98665,-2.51926 -10.09014,-2.91353 -5.01647,-0.27847 -5.71556,0.36055 -4.20026,3.83926 2.85254,6.54877 13.99121,9.02589 21.62565,4.8093 z m 30.02157,0.30164 c 3.4587,-1.74001 5.72017,-4.74485 5.46759,-7.26492 l -0.17963,-1.79215 -5.74352,0.20999 c -6.41766,0.2346 -7.45688,0.57951 -9.78706,3.24812 -1.25327,1.43532 -1.79037,1.7014 -2.34689,1.16276 -0.55866,-0.54073 -0.46467,-1.12646 0.41604,-2.59285 1.61359,-2.6866 4.64489,-4.09662 8.80696,-4.09662 4.01904,0 9.13451,-0.9618 11.56233,-2.17398 3.03646,-1.51599 6.62125,-5.1478 8.06355,-8.16923 1.82886,-3.83124 1.93818,-10.06211 0.24068,-13.71754 -1.72285,-3.70998 -5.91317,-7.49083 -9.93079,-8.96038 -5.10426,-1.86698 -6.77887,-1.71002 -7.5965,0.71192 -1.33503,3.95458 -7.04266,7.3875 -9.03853,5.43633 -0.76911,-0.75187 -0.53029,-1.00562 1.90826,-2.02747 3.20911,-1.34481 4.92088,-3.52465 4.92088,-6.26656 0,-2.74192 -1.71177,-4.92179 -4.92088,-6.26657 -2.53446,-1.06205 -2.70113,-1.25234 -1.83694,-2.09718 0.79376,-0.77596 1.30154,-0.81587 3.08028,-0.24198 1.17139,0.37793 2.45695,1.07251 2.85677,1.54346 1.09358,1.28815 2.31602,1.04458 4.60108,-0.91678 2.40483,-2.06416 6.50366,-2.58162 6.14799,-0.77613 -0.10791,0.54833 -1.05762,1.21514 -2.11023,1.4818 -2.4204,0.61312 -5.34453,3.83481 -4.44373,4.89589 0.34598,0.40756 1.83891,0.90308 3.31764,1.10124 3.46781,0.46467 7.4129,2.29347 10.47514,4.85594 1.33769,1.11935 2.6756,2.03519 2.97316,2.03519 1.03905,0 4.34716,-3.86312 5.56739,-6.50146 3.37099,-7.28872 0.16549,-15.09941 -8.14348,-19.84279 -1.0743,-0.61329 -1.07505,-0.74478 -0.0226,-4.01554 1.35538,-4.21251 0.92797,-7.635514 -1.37126,-10.982303 -5.27663,-7.680785 -16.88301,-8.75808 -19.21201,-1.783228 -0.94387,2.826625 -2.35988,2.704919 -2.26763,-0.194806 0.0781,-2.453119 1.74458,-4.643498 4.66136,-6.12672 1.56611,-0.796387 1.63893,-0.973815 0.86636,-2.111334 -3.30092,-4.860082 -13.5341,-4.35559 -17.60975,0.868169 -1.53827,1.971619 -1.59239,2.312029 -1.59239,10.013526 0,4.384871 0.17052,8.139166 0.37891,8.342906 0.20843,0.20373 1.14714,-0.0177 2.08603,-0.4925 1.91049,-0.965837 5.79942,-1.13339 7.92471,-0.34144 2.15317,0.80231 4.72486,3.61843 4.72486,5.17388 0,1.99005 -0.92524,1.73854 -3.55808,-0.96715 -2.67171,-2.7456 -5.1649,-3.10638 -8.34946,-1.20813 -3.13145,1.8666 -3.30735,3.36249 -3.09552,26.32725 0.21032,22.80045 0.15953,22.49573 4.05083,24.30091 2.71885,1.26129 6.07007,0.3388 8.13368,-2.23893 1.59954,-1.99805 3.73603,-2.04622 3.02056,-0.068 -1.56146,4.31728 -8.29406,6.83807 -12.29361,4.60295 -2.8105,-1.57066 -3.02313,-1.26889 -3.01953,4.28502 0.005,6.59713 0.81813,9.40293 3.42427,11.80579 4.23948,3.90875 12.97236,4.76005 18.79286,1.83187 z"
           id="path899-3" />
        <path
           sodipodi:nodetypes="sccsssscccssssscsssssssssssssssssccsssssssscsssssssssssssssscssscsssssssssccssscssccsssssccsssssccsss"
           transform="scale(0.26458333)"
           d="m 540.09961,121.14648 c -5.26942,-0.11093 -10.30005,2.93737 -12.61328,8.71875 -1.39272,3.48122 -1.6112,9.60558 -1.60742,44.76172 0.003,24.56672 0.40896,42.1862 1.02343,44.39844 0.57143,2.05749 2.56005,5.02095 4.5293,6.75 2.86197,2.51287 4.38244,3.08113 8.22656,3.07813 5.65482,-0.004 10.46143,-2.63917 12.69532,-6.95899 1.38168,-2.67192 1.54374,-8.64596 1.29882,-47.98047 l -0.27929,-44.92773 -2.91407,-3.04102 c -3.03564,-3.16769 -6.75398,-4.72292 -10.35937,-4.79883 z m -232.07813,95.78711 c -1.73569,0.0521 -3.36691,0.81139 -5.58593,1.79297 -3.79753,1.67982 -5.01355,2.89584 -6.69336,6.69336 -3.91972,8.86115 -4.24927,8.38775 29.45508,42.29492 16.597,16.69688 31.52574,31.20753 33.17578,32.2461 10.80545,6.80133 25.06087,-6.58112 19.07226,-17.9043 -0.7855,-1.48519 -15.29798,-16.50484 -32.25,-33.37695 -25.81421,-25.69257 -31.96675,-31.90246 -37.17383,-31.7461 z m 464.42188,0.29102 c -1.27687,0.008 -2.59381,0.21204 -3.94922,0.61328 -3.40796,1.00884 -9.03469,6.09467 -32.48828,29.36914 -15.60151,15.48234 -29.664,29.90576 -31.25,32.05078 -5.23718,7.08326 -3.11219,17.26502 4.37305,20.95508 3.78927,1.86806 7.49315,2.06165 11.42968,0.59766 3.1945,-1.18803 61.67785,-59.00638 63.88086,-63.1543 0.78875,-1.48519 1.4336,-4.73167 1.4336,-7.21484 0,-3.607 -0.61416,-5.21305 -3.05078,-7.98829 -3.07727,-3.50477 -6.54832,-5.25136 -10.37891,-5.22851 z M 252.24805,448.85156 c -20.61358,0.0178 -41.22998,0.39324 -43.81641,1.11133 -7.20166,1.99948 -11.84811,9.61935 -10.10352,16.57031 0.37123,1.47897 2.39255,4.40622 4.49219,6.50586 l 3.81836,3.81836 44.86719,-0.004 c 42.73652,-0.004 45.01896,-0.0957 48.06836,-1.95508 6.97073,-4.25031 8.56377,-14.39259 3.2168,-20.48242 -1.72902,-1.96929 -4.69254,-3.9578 -6.75,-4.5293 -2.56931,-0.71373 -23.17939,-1.05296 -43.79297,-1.03516 z m 576.30078,0.50586 c -40.84059,0 -44.42803,0.13684 -47.51367,1.82031 -4.28553,2.33825 -7.62163,9.41855 -6.71485,14.25196 0.71048,3.78739 4.82459,9.1863 7.97071,10.45898 1.14485,0.46315 21.88205,0.86638 46.08203,0.90039 41.91016,0.0568 44.15143,-0.0327 47.19531,-1.88867 4.56363,-2.7826 6.4707,-6.21418 6.4707,-11.64453 0,-5.06468 -1.77285,-8.27062 -6.55078,-11.83789 -2.69166,-2.00961 -3.88107,-2.06055 -46.93945,-2.06055 z m -463.95313,175.5 c -6.1598,0 -8.44659,1.94296 -41.34179,35.13477 -29.49475,29.76075 -30.72395,31.43839 -28.48829,38.90039 0.62272,2.07847 2.71699,5.17008 4.6543,6.87109 2.82478,2.48017 4.41647,3.09375 8.03711,3.09375 2.48318,0 5.72969,-0.6448 7.21485,-1.43359 4.14792,-2.20298 61.96627,-60.6864 63.15429,-63.88086 3.5117,-9.44258 -3.03221,-18.68555 -13.23047,-18.68555 z m 350.71289,0.0605 c -2.31357,0.0205 -4.65461,0.51885 -6.52929,1.48828 -6.07537,3.14169 -8.75386,12.07206 -5.47266,18.25 1.65192,3.11032 61.30527,62.71227 63.56641,63.51172 3.05151,1.0789 9.18793,0.64333 12.09375,-0.85938 5.80849,-3.00328 8.73479,-11.9691 5.80078,-17.76757 -1.57406,-3.11082 -59.84369,-61.52284 -63.0957,-63.25 -1.76455,-0.93708 -4.04971,-1.39359 -6.36329,-1.37305 z m -283.74804,45.52344 c 0.80756,1.59487 1.61499,3.21921 2.42773,4.91601 12.29862,25.67634 16.88477,49.9756 16.88477,89.46289 0,23.19024 2.78499,31.77975 14.14062,43.60547 6.33135,6.59342 12.97586,10.72153 21.80469,13.54688 4.98762,1.59598 10.35821,1.7817 52.59375,1.83007 39.16271,0.0448 48.02611,-0.20228 52.92578,-1.47851 15.7598,-4.10491 28.96415,-16.37189 34.76172,-32.29492 1.81364,-4.98104 2.15844,-9.08163 2.83203,-33.67188 1.01983,-37.23023 3.72891,-52.12659 13.78906,-75.8164 1.49657,-3.52411 3.02278,-6.84352 4.60742,-10.04102 -14.99869,8.03779 -30.87818,14.38042 -47.33398,18.90625 -2.14164,7.32353 -3.9139,14.80642 -5.28906,22.45117 -1.5899,8.83873 -2.21603,17.75798 -2.70117,38.54492 -0.69672,29.85294 -0.82981,30.47028 -7.43555,34.49805 -3.03341,1.84944 -5.32906,1.94935 -45.21094,1.95313 -38.78619,0.003 -42.27666,-0.13742 -45.42187,-1.82422 -6.31903,-3.38892 -7.0625,-6.25978 -7.0625,-27.30078 0,-26.81659 -2.48708,-47.96317 -8.4961,-68.22071 -16.62858,-4.54297 -32.67198,-10.94015 -47.8164,-19.0664 z m 74.36718,172.49414 c -26.99925,-0.0122 -30.56409,0.34754 -32.82812,1.53906 -10.58823,5.57231 -9.03013,21.92344 2.41601,25.35351 1.57161,0.47097 30.63659,0.89612 64.5879,0.94336 54.60374,0.0761 62.19422,-0.0999 65.76171,-1.52734 9.73728,-3.89609 11.71773,-15.50079 3.91993,-22.97266 l -3.04297,-2.91406 -65.1836,-0.30273 c -15.02726,-0.0698 -26.6311,-0.11509 -35.63086,-0.11914 z m 34.22852,43.92187 c -59.89466,0 -64.02288,0.11118 -67.2207,1.82617 -9.62366,5.16121 -9.06828,19.35612 0.95703,24.4375 3.23403,1.63911 8.01096,1.7453 67.55859,1.5 l 64.07813,-0.26367 3.59179,-2.74023 c 6.12839,-4.67532 7.30565,-13.24214 2.63672,-19.17774 -4.53131,-5.76064 -2.23336,-5.58203 -71.60156,-5.58203 z"
           style="fill:#000000;stroke-width:0.999999"
           id="path972-5" />
        <path
           id="path994-2"
           style="fill:#000000;fill-opacity:1;stroke-width:0.125718"
           inkscape:transform-center-y="5.0689461"
           d="m 125.31557,246.52836 17.5595,30.41366 17.55925,-30.41366 z m 5.24086,2.76579 h 24.63702 l -7.17966,12.43552 H 137.7361 Z" />
      </g>
      <path
         style="fill:#000000;stroke-width:0.0743166"
         d="m 116.6048,258.71384 c -0.6039,-0.1624 -1.07308,-0.44997 -1.55795,-0.95491 -0.72838,-0.75853 -1.05213,-1.57269 -1.04908,-2.63821 0.002,-0.77017 0.0842,-1.15329 0.37949,-1.77192 0.67732,-1.41918 2.29791,-2.20023 3.86965,-1.86499 0.45197,0.0964 1.13039,0.37963 1.20726,0.504 0.0533,0.0862 -0.23836,1.17587 -0.3298,1.23238 -0.0277,0.0172 -0.29797,-0.0549 -0.60055,-0.16017 -0.90595,-0.31506 -1.62748,-0.16357 -2.23897,0.47009 -0.41979,0.43499 -0.60792,0.92274 -0.61156,1.58551 -0.003,0.65998 0.18149,1.13987 0.61156,1.58552 0.44375,0.45984 0.78205,0.60318 1.42692,0.60461 0.45065,0.001 0.63891,-0.0369 0.98325,-0.19788 0.23424,-0.10951 0.43884,-0.17618 0.45468,-0.14814 0.0349,0.0617 0.17092,0.68803 0.23354,1.0753 0.0447,0.27615 0.0394,0.28385 -0.29452,0.43156 -0.77537,0.34299 -1.76251,0.44125 -2.48392,0.24725 z m 5.97469,0.0127 c -1.19638,-0.29693 -2.27332,-1.41062 -2.55758,-2.64484 -0.11342,-0.49248 -0.0969,-1.46688 0.0332,-1.96679 0.47633,-1.82878 2.28947,-2.94953 4.13703,-2.5572 1.26791,0.26923 2.39382,1.41877 2.66392,2.71981 0.12142,0.58491 0.0558,1.66879 -0.13249,2.18823 -0.62258,1.71756 -2.40813,2.69165 -4.14415,2.26079 z m 1.77812,-1.63443 c 0.63578,-0.37259 1.01487,-1.07868 1.01745,-1.89508 6.7e-4,-0.28204 -0.0374,-0.6431 -0.0851,-0.80237 -0.12969,-0.43287 -0.54201,-0.95247 -0.94271,-1.18801 -0.30458,-0.17903 -0.43582,-0.20908 -0.91308,-0.20908 -0.47417,0 -0.60925,0.0305 -0.90491,0.20429 -0.70013,0.41158 -1.0489,1.07848 -1.04034,1.98928 0.009,0.95681 0.59068,1.82312 1.39781,2.0818 0.3842,0.12314 1.10303,0.0348 1.47092,-0.18083 z m 5.67179,1.66286 c -1.43376,-0.35973 -2.50787,-1.87305 -2.50787,-3.53338 0,-0.74185 0.10925,-1.24436 0.40728,-1.87327 0.59255,-1.25046 1.78222,-1.95446 3.13094,-1.85279 0.6371,0.048 1.15054,0.28585 1.6738,0.77529 l 0.36171,0.33835 v -2.04496 -2.04496 l 0.86173,-0.0539 c 0.52024,-0.0325 0.8896,-0.026 0.93208,0.0165 0.0443,0.0443 0.0383,0.78445 -0.0163,1.99574 -0.0701,1.55905 -0.0877,5.02951 -0.0392,7.72206 l 0.008,0.44591 -0.74156,0.0141 c -0.50571,0.01 -0.75945,-0.014 -0.79777,-0.0743 -0.0309,-0.0486 -0.0567,-0.28377 -0.0573,-0.52258 l -0.001,-0.43421 -0.39016,0.35265 c -0.5932,0.53618 -1.21603,0.79969 -1.94743,0.82393 -0.32885,0.0109 -0.72345,-0.0117 -0.8769,-0.0502 z m 1.93243,-1.58603 c 0.93121,-0.48154 1.38636,-1.83016 0.98064,-2.9057 -0.22302,-0.59121 -0.78374,-1.16024 -1.27954,-1.29851 -0.93801,-0.26158 -1.88134,0.22117 -2.30539,1.17977 -0.18015,0.40727 -0.24739,1.19542 -0.13683,1.60392 0.1774,0.65552 0.72257,1.26883 1.32907,1.49519 0.34845,0.13004 1.09224,0.0907 1.41205,-0.0747 z m 6.42856,1.54976 c -1.2304,-0.26728 -2.17915,-1.19965 -2.50888,-2.46558 -0.14325,-0.54997 -0.14184,-1.58191 0.003,-2.13772 0.23724,-0.91083 0.92629,-1.85504 1.67164,-2.29066 0.78069,-0.45627 1.89645,-0.53847 2.77143,-0.20416 0.62345,0.23821 1.3116,0.9035 1.65662,1.60159 0.22324,0.45171 0.27408,0.64518 0.30663,1.16713 0.0451,0.72304 -0.0232,0.91265 -0.38286,1.06293 -0.1331,0.0556 -0.99155,0.16976 -1.90767,0.25366 -0.91612,0.0839 -1.87605,0.17215 -2.13317,0.1961 -0.43712,0.0407 -0.46428,0.054 -0.41791,0.20453 0.14772,0.4794 0.44456,0.80132 1.0254,1.11206 0.25343,0.13558 0.42065,0.1627 0.97476,0.15809 0.76643,-0.007 1.26611,-0.16448 1.86449,-0.58991 0.20049,-0.14254 0.38325,-0.25916 0.40614,-0.25916 0.0229,0 0.15498,0.23431 0.29352,0.5207 l 0.25191,0.52072 -0.29328,0.3013 c -0.35049,0.36008 -1.17938,0.78401 -1.73403,0.88686 -0.53802,0.0998 -1.28272,0.0843 -1.84768,-0.0385 z m 1.45457,-4.22806 c 0.3811,-0.0574 0.71117,-0.12268 0.7335,-0.14501 0.0766,-0.0766 -0.0552,-0.5512 -0.22168,-0.79821 -0.0916,-0.13589 -0.31102,-0.34864 -0.48765,-0.47278 -0.2746,-0.19299 -0.38838,-0.2257 -0.78505,-0.2257 -0.38671,0 -0.52321,0.0371 -0.82029,0.22295 -0.42582,0.26638 -0.77165,0.72179 -0.8324,1.09617 -0.0834,0.51393 -0.0531,0.53019 0.88657,0.47553 0.45875,-0.0267 1.14589,-0.0955 1.527,-0.15295 z m -27.8184,2.73608 c -0.90477,-0.76327 -1.5915,-1.24633 -2.50364,-1.76114 l -0.69196,-0.39053 -0.019,-0.59284 c -0.0105,-0.32607 0.006,-0.6268 0.0371,-0.6683 0.0309,-0.0415 0.27355,-0.18766 0.53923,-0.32482 0.69054,-0.35649 1.79938,-1.10597 2.48147,-1.67726 0.79453,-0.66547 0.99587,-0.80202 1.0935,-0.74167 0.096,0.0593 0.43812,0.80495 0.43812,0.95489 0,0.30047 -1.69714,1.58166 -2.77013,2.09122 -0.31576,0.14996 -0.57411,0.28524 -0.57411,0.30063 0,0.0154 0.22777,0.14267 0.50615,0.28286 0.75651,0.38097 1.83912,1.12905 2.38833,1.6503 l 0.48691,0.46214 -0.27409,0.50644 c -0.15075,0.27853 -0.30124,0.51286 -0.33442,0.52072 -0.0332,0.008 -0.39476,-0.26783 -0.8035,-0.61264 z m 31.14529,0.12134 c -0.23757,-0.45209 -0.25979,-0.53683 -0.17642,-0.67272 0.19818,-0.32301 1.97562,-1.58339 2.87743,-2.04037 0.21515,-0.10902 0.37575,-0.21366 0.3569,-0.23251 -0.0188,-0.0188 -0.3148,-0.16977 -0.65766,-0.33537 -0.86057,-0.41565 -1.72944,-1.01134 -2.25473,-1.54585 l -0.4423,-0.45006 0.25228,-0.5215 c 0.13876,-0.28682 0.2651,-0.5215 0.28075,-0.5215 0.0157,0 0.4747,0.35165 1.0201,0.78144 1.02179,0.80519 2.18499,1.57736 2.75796,1.83081 l 0.32648,0.14441 v 0.66444 0.66444 l -0.50979,0.25671 c -0.71416,0.35966 -1.92391,1.18437 -2.77781,1.8937 -0.39802,0.33064 -0.73666,0.60116 -0.75253,0.60116 -0.0159,0 -0.15117,-0.23276 -0.30066,-0.51723 z"
         id="path1056" />
    </g>
    <path
       transform="scale(0.26458333)"
       id="path1065"
       d="M 507.76587,907.2012 494.4424,883.98747 h 45.43136 45.43136 l -1.19063,2.27284 c -0.65485,1.25007 -6.62475,11.70515 -13.26645,23.23351 l -12.07582,20.96067 -18.84143,-0.0198 -18.84144,-0.0198 z"
       style="fill:#f99f63;fill-opacity:1;stroke-width:1.01015" />
    <path
       transform="scale(0.26458333)"
       id="path3214"
       d="m 580.13358,602.76089 c -15.49042,-3.91158 -25.34013,-11.61915 -30.95861,-24.22565 -2.6552,-5.95763 -3.27341,-10.34296 -3.72572,-26.42858 -0.30945,-11.00525 0.0488,-20.1519 0.83435,-21.30311 1.15973,-1.69956 2.56287,-1.5071 8.9057,1.22151 14.36352,6.17902 33.4749,1.71503 42.99031,-10.04158 2.27491,-2.81072 4.27202,-6.98576 4.43804,-9.27787 0.49765,-6.87052 -4.71877,-6.31612 -12.94165,1.37543 -3.79166,3.54665 -8.6727,7.12474 -10.84678,7.95132 -10.31485,3.9217 -24.58423,-0.40881 -28.90986,-8.77367 -3.42706,-6.6272 -5.2177,-52.40138 -4.45994,-114.00917 0.45717,-37.16878 1.13207,-52.17204 2.52681,-56.17213 2.27939,-6.53719 8.05871,-11.72297 15.57415,-13.97465 8.69525,-2.60517 14.49745,-0.68286 24.27678,8.04308 8.99581,8.02681 12.41224,9.42566 13.85268,5.67193 2.31461,-6.03176 -6.13174,-17.89449 -15.90093,-22.33254 -7.28853,-3.31111 -22.14085,-3.46923 -31.34316,-0.33368 -5.76692,1.96499 -7.03593,2.02101 -8.08975,0.35714 -0.68743,-1.08539 -1.24561,-13.86629 -1.24038,-28.40201 0.0109,-30.18784 1.14116,-34.63557 10.83368,-42.63006 16.15177,-13.32215 45.73212,-14.09373 57.22039,-1.49256 4.8489,5.31864 4.52377,6.54853 -3.05828,11.56864 -11.1465,7.38013 -16.8067,18.21359 -14.44094,27.63951 1.38271,5.50917 5.3081,3.84328 8.96454,-3.80446 6.95843,-14.55411 20.92268,-20.65813 37.52787,-16.40408 17.60426,4.51001 30.13159,14.15 37.29358,28.69806 5.19713,10.55688 5.90777,22.01852 2.1255,34.2821 -3.76669,12.21311 -3.22708,14.18802 5.45037,19.94777 15.60341,10.35697 26.68854,25.84209 29.53955,41.26465 2.76782,14.97248 -3.38103,32.27682 -16.4633,46.33172 l -7.50533,8.06334 -10.55615,-8.00973 c -14.1094,-10.70583 -20.76194,-13.92634 -37.68428,-18.24307 -10.07283,-2.56948 -14.4004,-4.3198 -14.71092,-5.9499 -0.71705,-3.76421 6.75859,-11.27258 15.3009,-15.3679 6.47901,-3.10613 7.96671,-4.47627 7.96671,-7.33713 0,-6.81577 -10.73923,-5.47043 -23.30284,2.91923 -8.51599,5.68676 -13.54533,7.02644 -15.35933,4.09133 -1.37588,-2.22623 -15.02765,-8.39391 -18.61642,-8.41064 -1.64608,-0.007 -4.21192,1.33307 -5.70187,2.97945 -2.66974,2.95003 -2.6603,3.03285 0.65114,5.71429 1.84807,1.49647 4.15675,2.72087 5.13039,2.72087 3.05846,0 13.59841,8.45507 16.52658,13.25749 1.54249,2.52981 2.80693,7.0423 2.80987,10.02774 0.01,9.84142 -5.27012,16.53556 -18.10785,22.95859 -8.53158,4.26855 -9.95017,5.92573 -7.54916,8.81875 2.02362,2.43832 9.51052,2.71906 15.16636,0.56872 7.28501,-2.76976 15.91015,-11.14974 19.68183,-19.12243 2.05436,-4.34257 4.90863,-8.1376 6.50027,-8.64277 4.11557,-1.30623 19.04863,2.88483 29.1526,8.18187 10.44985,5.47837 24.62355,19.35636 29.1309,28.52313 6.61975,13.46286 6.4647,37.26836 -0.33953,52.13074 -4.2199,9.21747 -19.95625,25.65337 -28.95676,30.24402 -8.64192,4.40774 -22.16254,7.21968 -41.92831,8.72002 -12.80116,0.97169 -18.85958,2.10745 -23.67418,4.43816 -7.54377,3.65187 -14.78512,12.80167 -14.78512,18.68174 0,6.02229 4.7257,5.2962 11.75784,-1.80657 8.63639,-8.72314 13.19911,-10.10735 36.60495,-11.1051 l 20.50565,-0.8741 -0.62435,7.51406 c -0.99597,11.98667 -11.6688,22.92956 -27.5298,28.22637 -10.0142,3.34427 -29.4177,3.9966 -39.92879,1.34237 z"
       style="fill:url(#radialGradient3224);fill-opacity:1;fill-rule:evenodd;stroke:none;stroke-width:2.04095;stroke-miterlimit:4;stroke-dasharray:none" />
    <path
       transform="scale(0.26458333)"
       id="path3226"
       d="m 465.42047,602.84698 c -16.3661,-4.60457 -27.99418,-13.74067 -32.49784,-25.53334 -2.14544,-5.61773 -2.23099,-6.95465 -0.57292,-8.95249 1.68842,-2.03443 4.43653,-2.24779 20.54519,-1.59504 10.22782,0.41445 20.49369,1.49763 22.81304,2.40707 2.31935,0.90943 7.27395,4.51294 11.01023,8.00778 7.36492,6.88903 8.57939,7.37068 11.05713,4.38519 3.54045,-4.26599 -4.32584,-15.81476 -14.25019,-20.92117 -3.3695,-1.73373 -12.12355,-3.36459 -25.71428,-4.79053 -11.33308,-1.18907 -24.62226,-3.41526 -29.53152,-4.9471 -17.64958,-5.50719 -30.83773,-17.04506 -39.33864,-34.41607 -4.32396,-8.8357 -4.59259,-10.30376 -4.59259,-25.0989 0,-14.42403 0.33812,-16.4036 4.11793,-24.10953 8.75914,-17.85734 31.383,-34.74324 50.88207,-37.97716 7.05976,-1.17086 8.11086,-1.0063 10.35715,1.62149 1.375,1.60851 2.5,3.7212 2.5,4.69484 0,3.50543 8.82474,13.85107 15.33842,17.98193 7.66203,4.85911 17.31815,5.75846 20.51175,1.9104 1.64114,-1.97746 1.43967,-2.69091 -1.41191,-5 -1.82942,-1.48137 -4.12283,-2.6934 -5.09647,-2.6934 -3.05846,0 -13.59842,-8.45507 -16.52658,-13.25749 -1.71094,-2.80608 -2.80662,-7.16327 -2.80987,-11.17411 -0.008,-9.32442 4.40779,-15.22579 15.56614,-20.805 11.88316,-5.94162 12.7087,-6.85312 9.45906,-10.44393 -1.43892,-1.59 -3.68778,-2.8909 -4.99747,-2.8909 -4.41563,0 -15.43934,4.43467 -17.96722,7.22794 -3.55602,3.92936 -7.84704,3.44792 -14.9172,-1.67368 -11.27091,-8.1646 -21.98029,-10.77472 -25.72008,-6.26855 -2.48257,2.99132 0.089,5.77289 8.80262,9.52138 7.63922,3.28631 15.88767,11.56837 15.19816,15.2601 -0.31436,1.68314 -4.0464,3.24464 -12.99352,5.43655 -15.75949,3.86086 -25.22935,8.47179 -37.52724,18.27222 l -9.67941,7.71373 -4.63697,-3.53679 c -5.7701,-4.40107 -14.02563,-16.30914 -17.20008,-24.81004 -1.45673,-3.90097 -2.44529,-10.92209 -2.51427,-17.85715 -0.0988,-9.93157 0.46363,-12.65374 4.29371,-20.78195 5.39291,-11.44487 11.4091,-18.47398 21.92247,-25.61347 12.16224,-8.25922 12.09856,-8.11707 9.29075,-20.73764 -3.08409,-13.86237 -2.38617,-27.78886 1.82608,-36.43836 9.09278,-18.67126 29.97316,-29.47543 54.78707,-28.34857 10.03473,0.4557 11.5566,0.92027 15.67122,4.78378 2.50645,2.35349 6.03486,7.56749 7.8409,11.58666 5.12923,11.41459 11.04646,11.83298 10.89379,0.77028 -0.14069,-10.19368 -8.67845,-21.42629 -20.25305,-26.64571 -6.54272,-2.95036 -7.04356,-4.72351 -2.50795,-8.87906 13.39156,-12.26943 35.24643,-12.9104 52.94569,-1.55282 12.97948,8.32892 13.55738,10.12836 14.7049,45.788 l 0.99996,31.074 -7.00385,-1.074 c -3.85211,-0.59069 -12.5833,-1.07399 -19.40264,-1.07399 -13.74001,0 -16.54016,1.26245 -24.43469,11.01639 -4.7123,5.82221 -6.0405,14.29522 -2.36027,15.05697 1.22915,0.25441 6.47057,-3.41873 11.6476,-8.16254 8.67585,-7.94984 9.93049,-8.62511 16.02536,-8.62511 8.55576,0 16.11803,3.22671 21.04369,8.97903 l 3.93242,4.5924 0.0114,82.85714 0.0114,82.85715 -6.46051,5.52535 c -11.29152,9.65708 -22.81032,9.701 -32.06737,0.12229 -6.2911,-6.5097 -13.71321,-11.1391 -15.79553,-9.85216 -2.36559,1.46203 -0.60925,9.747 3.14185,14.82065 1.76911,2.39284 5.68704,6.06265 8.70652,8.15517 4.87577,3.3789 6.72503,3.78258 16.52936,3.60821 6.07165,-0.108 13.72987,-0.59357 17.01825,-1.0791 5.93783,-0.87671 5.98539,-0.84806 6.92802,4.17663 0.52204,2.78269 0.70775,13.61729 0.41273,24.0769 -0.4134,14.65563 -1.11219,20.08706 -3.04669,23.68074 -3.18526,5.91719 -13.71089,13.69877 -23.84436,17.62809 -10.26623,3.98078 -30.55511,4.97887 -41.07046,2.0204 z"
       style="fill:url(#radialGradient3234);fill-opacity:1;fill-rule:evenodd;stroke:none;stroke-width:2.04095;stroke-miterlimit:4;stroke-dasharray:none" />
  </g>
</svg>
