,subject,family
0,train_sub0,315
1,train_sub1,315
2,train_sub2,315
3,train_sub3,158
4,train_sub4,158
5,train_sub5,158
6,train_sub6,131
7,train_sub7,131
8,train_sub8,131
9,train_sub9,25
10,train_sub10,210
11,train_sub11,210
12,train_sub12,214
13,train_sub13,153
14,train_sub14,153
15,train_sub15,153
16,train_sub16,273
17,train_sub17,273
18,train_sub18,273
19,train_sub19,107
20,train_sub20,198
21,train_sub21,198
22,train_sub22,198
23,train_sub23,198
24,train_sub24,198
25,train_sub25,142
26,train_sub26,163
27,train_sub27,163
28,train_sub28,163
29,train_sub29,279
30,train_sub30,279
31,train_sub31,302
32,train_sub32,302
33,train_sub33,122
34,train_sub34,122
35,train_sub35,159
36,train_sub36,97
37,train_sub37,97
38,train_sub38,322
39,train_sub39,322
40,train_sub40,105
41,train_sub41,105
42,train_sub42,231
43,train_sub43,231
44,train_sub44,231
45,train_sub45,91
46,train_sub46,91
47,train_sub47,186
48,train_sub48,186
49,train_sub49,141
50,train_sub50,141
51,train_sub51,141
52,train_sub52,234
53,train_sub53,234
54,train_sub54,234
55,train_sub55,170
56,train_sub56,13
57,train_sub57,13
58,train_sub58,326
59,train_sub59,326
60,train_sub60,172
61,train_sub61,190
62,train_sub62,275
63,train_sub63,275
64,train_sub64,275
65,train_sub65,2
66,train_sub66,2
67,train_sub67,126
68,train_sub68,126
69,train_sub69,286
70,train_sub70,286
71,train_sub71,1
72,train_sub72,1
73,train_sub73,1
74,train_sub74,328
75,train_sub75,328
76,train_sub76,328
77,train_sub77,28
78,train_sub78,28
79,train_sub79,28
80,train_sub80,78
81,train_sub81,78
82,train_sub82,335
83,train_sub83,335
84,train_sub84,335
85,train_sub85,335
86,train_sub86,335
87,train_sub87,92
88,train_sub88,162
89,train_sub89,64
90,train_sub90,64
91,train_sub91,289
92,train_sub92,289
93,train_sub93,289
94,train_sub94,289
95,train_sub95,59
96,train_sub96,93
97,train_sub97,93
98,train_sub98,168
99,train_sub99,168
100,train_sub100,136
101,train_sub101,136
102,train_sub102,282
103,train_sub103,282
104,train_sub104,253
105,train_sub105,112
106,train_sub106,112
107,train_sub107,154
108,train_sub108,154
109,train_sub109,154
110,train_sub110,304
111,train_sub111,304
112,train_sub112,304
113,train_sub113,192
114,train_sub114,192
115,train_sub115,192
116,train_sub116,192
117,train_sub117,325
118,train_sub118,325
119,train_sub119,325
120,train_sub120,278
121,train_sub121,278
122,train_sub122,110
123,train_sub123,110
124,train_sub124,110
125,train_sub125,301
126,train_sub126,301
127,train_sub127,235
128,train_sub128,310
129,train_sub129,310
130,train_sub130,310
131,train_sub131,316
132,train_sub132,316
133,train_sub133,316
134,train_sub134,245
135,train_sub135,245
136,train_sub136,87
137,train_sub137,87
138,train_sub138,87
139,train_sub139,88
140,train_sub140,88
141,train_sub141,88
142,train_sub142,70
143,train_sub143,70
144,train_sub144,224
145,train_sub145,224
146,train_sub146,45
147,train_sub147,45
148,train_sub148,45
149,train_sub149,185
150,train_sub150,185
151,train_sub151,185
152,train_sub152,257
153,train_sub153,257
154,train_sub154,257
155,train_sub155,71
156,train_sub156,71
157,train_sub157,71
158,train_sub158,352
159,train_sub159,80
160,train_sub160,80
161,train_sub161,80
162,train_sub162,293
163,train_sub163,293
164,train_sub164,111
165,train_sub165,111
166,train_sub166,29
167,train_sub167,29
168,train_sub168,7
169,train_sub169,7
170,train_sub170,7
171,train_sub171,248
172,train_sub172,248
173,train_sub173,248
174,train_sub174,248
175,train_sub175,113
176,train_sub176,303
177,train_sub177,303
178,train_sub178,303
179,train_sub179,238
180,train_sub180,165
181,train_sub181,31
182,train_sub182,252
183,train_sub183,298
184,train_sub184,298
185,train_sub185,298
186,train_sub186,266
187,train_sub187,266
188,train_sub188,266
189,train_sub189,312
190,train_sub190,312
191,train_sub191,276
192,train_sub192,276
193,train_sub193,272
194,train_sub194,272
195,train_sub195,225
196,train_sub196,9
197,train_sub197,295
198,train_sub198,349
199,train_sub199,349
200,train_sub200,164
201,train_sub201,164
202,train_sub202,164
203,train_sub203,164
204,train_sub204,117
205,train_sub205,117
206,train_sub206,117
207,train_sub207,117
208,train_sub208,241
209,train_sub209,200
210,train_sub210,200
211,train_sub211,285
212,train_sub212,285
213,train_sub213,51
214,train_sub214,51
215,train_sub215,51
216,train_sub216,146
217,train_sub217,53
218,train_sub218,53
219,train_sub219,53
220,train_sub220,227
221,train_sub221,227
222,train_sub222,227
223,train_sub223,332
224,train_sub224,332
225,train_sub225,332
226,train_sub226,332
227,train_sub227,73
228,train_sub228,73
229,train_sub229,73
230,train_sub230,156
231,train_sub231,156
232,train_sub232,156
233,train_sub233,213
234,train_sub234,213
235,train_sub235,213
236,train_sub236,180
237,train_sub237,180
238,train_sub238,180
239,train_sub239,180
240,train_sub240,52
241,train_sub241,52
242,train_sub242,52
243,train_sub243,12
244,train_sub244,12
245,train_sub245,12
246,train_sub246,57
247,train_sub247,57
248,train_sub248,57
249,train_sub249,233
250,train_sub250,233
251,train_sub251,233
252,train_sub252,14
253,train_sub253,14
254,train_sub254,14
255,train_sub255,209
256,train_sub256,264
257,train_sub257,264
258,train_sub258,264
259,train_sub259,239
260,train_sub260,239
261,train_sub261,314
262,train_sub262,314
263,train_sub263,314
264,train_sub264,182
265,train_sub265,182
266,train_sub266,74
267,train_sub267,343
268,train_sub268,343
269,train_sub269,36
270,train_sub270,36
271,train_sub271,36
272,train_sub272,36
273,train_sub273,262
274,train_sub274,262
275,train_sub275,348
276,train_sub276,348
277,train_sub277,317
278,train_sub278,317
279,train_sub279,68
280,train_sub280,68
281,train_sub281,68
282,train_sub282,103
283,train_sub283,103
284,train_sub284,103
285,train_sub285,72
286,train_sub286,211
287,train_sub287,211
288,train_sub288,211
289,train_sub289,189
290,train_sub290,189
291,train_sub291,189
292,train_sub292,101
293,train_sub293,101
294,train_sub294,268
295,train_sub295,268
296,train_sub296,26
297,train_sub297,178
298,train_sub298,178
299,train_sub299,178
300,train_sub300,212
301,train_sub301,212
302,train_sub302,212
303,train_sub303,333
304,train_sub304,109
305,train_sub305,109
306,train_sub306,109
307,train_sub307,109
308,train_sub308,22
309,train_sub309,22
310,train_sub310,22
311,train_sub311,35
312,train_sub312,35
313,train_sub313,8
314,train_sub314,291
315,train_sub315,291
316,train_sub316,32
317,train_sub317,216
318,train_sub318,216
319,train_sub319,50
320,train_sub320,50
321,train_sub321,50
322,train_sub322,41
323,train_sub323,41
324,train_sub324,41
325,train_sub325,319
326,train_sub326,319
327,train_sub327,319
328,train_sub328,119
329,train_sub329,119
330,train_sub330,119
331,train_sub331,217
332,train_sub332,23
333,train_sub333,84
334,train_sub334,84
335,train_sub335,220
336,train_sub336,309
337,train_sub337,223
338,train_sub338,223
339,train_sub339,341
340,train_sub340,341
341,train_sub341,341
342,train_sub342,218
343,train_sub343,308
344,train_sub344,61
345,train_sub345,15
346,train_sub346,15
347,train_sub347,327
348,train_sub348,327
349,train_sub349,89
350,train_sub350,329
351,train_sub351,329
352,train_sub352,329
353,train_sub353,222
354,train_sub354,222
355,train_sub355,33
356,train_sub356,33
357,train_sub357,207
358,train_sub358,204
359,train_sub359,204
360,train_sub360,294
361,train_sub361,294
362,train_sub362,90
363,train_sub363,90
364,train_sub364,90
365,train_sub365,324
366,train_sub366,324
367,train_sub367,292
368,train_sub368,187
369,train_sub369,99
370,train_sub370,99
371,train_sub371,62
372,train_sub372,67
373,train_sub373,67
374,train_sub374,67
375,train_sub375,265
376,train_sub376,265
377,train_sub377,265
378,train_sub378,307
379,train_sub379,307
380,train_sub380,307
381,train_sub381,287
382,train_sub382,66
383,train_sub383,66
384,train_sub384,236
385,train_sub385,236
386,train_sub386,20
387,train_sub387,20
388,train_sub388,20
389,train_sub389,193
390,train_sub390,169
391,train_sub391,169
392,train_sub392,169
393,train_sub393,169
394,train_sub394,256
395,train_sub395,256
396,train_sub396,63
397,train_sub397,63
398,train_sub398,63
399,train_sub399,38
400,train_sub400,38
401,train_sub401,38
402,train_sub402,38
403,train_sub403,160
404,train_sub404,160
405,train_sub405,342
406,train_sub406,342
407,train_sub407,330
408,train_sub408,330
409,train_sub409,330
410,train_sub410,338
411,train_sub411,338
412,train_sub412,339
413,train_sub413,339
414,train_sub414,339
415,train_sub415,271
416,train_sub416,271
417,train_sub417,197
418,train_sub418,197
419,train_sub419,171
420,train_sub420,171
421,train_sub421,130
422,train_sub422,130
423,train_sub423,199
424,train_sub424,199
425,train_sub425,83
426,train_sub426,83
427,train_sub427,167
428,train_sub428,167
429,train_sub429,177
430,train_sub430,177
431,train_sub431,177
432,train_sub432,100
433,train_sub433,100
434,train_sub434,123
435,train_sub435,123
436,train_sub436,123
437,train_sub437,254
438,train_sub438,17
439,train_sub439,115
440,train_sub440,115
441,train_sub441,115
442,train_sub442,116
443,train_sub443,116
444,train_sub444,116
445,train_sub445,116
446,train_sub446,155
447,train_sub447,155
448,train_sub448,155
449,train_sub449,155
450,train_sub450,191
451,train_sub451,191
452,train_sub452,250
453,train_sub453,246
454,train_sub454,246
455,train_sub455,47
456,train_sub456,47
457,train_sub457,47
458,train_sub458,337
459,train_sub459,337
460,train_sub460,147
461,train_sub461,147
462,train_sub462,251
463,train_sub463,251
464,train_sub464,251
465,train_sub465,251
466,train_sub466,179
467,train_sub467,179
468,train_sub468,118
469,train_sub469,242
470,train_sub470,242
471,train_sub471,242
472,train_sub472,128
473,train_sub473,54
474,train_sub474,54
475,train_sub475,102
476,train_sub476,102
477,train_sub477,102
478,train_sub478,311
479,train_sub479,311
480,train_sub480,311
481,train_sub481,4
482,train_sub482,4
483,train_sub483,4
484,train_sub484,259
485,train_sub485,259
486,train_sub486,259
487,train_sub487,344
488,train_sub488,344
489,train_sub489,181
490,train_sub490,94
491,train_sub491,94
492,train_sub492,94
493,train_sub493,27
494,train_sub494,27
495,train_sub495,27
496,train_sub496,27
497,train_sub497,10
498,train_sub498,10
499,train_sub499,10
500,train_sub500,345
501,train_sub501,345
502,train_sub502,183
503,train_sub503,183
504,train_sub504,300
505,train_sub505,300
506,train_sub506,205
507,train_sub507,205
508,train_sub508,283
509,train_sub509,283
510,train_sub510,151
511,train_sub511,19
512,train_sub512,19
513,train_sub513,221
514,train_sub514,221
515,train_sub515,176
516,train_sub516,176
517,train_sub517,176
518,train_sub518,255
519,train_sub519,255
520,train_sub520,255
521,train_sub521,318
522,train_sub522,318
523,train_sub523,318
524,train_sub524,127
525,train_sub525,127
526,train_sub526,55
527,train_sub527,55
528,train_sub528,55
529,train_sub529,55
530,train_sub530,230
531,train_sub531,350
532,train_sub532,350
533,train_sub533,350
534,train_sub534,106
535,train_sub535,106
536,train_sub536,106
537,train_sub537,269
538,train_sub538,269
539,train_sub539,24
540,train_sub540,174
541,train_sub541,174
542,train_sub542,42
543,train_sub543,42
544,train_sub544,42
545,train_sub545,260
546,train_sub546,260
547,train_sub547,260
548,train_sub548,143
549,train_sub549,143
550,train_sub550,60
551,train_sub551,60
552,train_sub552,340
553,train_sub553,340
554,train_sub554,58
555,train_sub555,58
556,train_sub556,161
557,train_sub557,161
558,train_sub558,331
559,train_sub559,219
560,train_sub560,219
561,train_sub561,114
562,train_sub562,114
563,train_sub563,114
564,train_sub564,114
565,train_sub565,76
566,train_sub566,76
567,train_sub567,76
568,train_sub568,76
569,train_sub569,11
570,train_sub570,11
571,train_sub571,11
572,train_sub572,21
573,train_sub573,152
574,train_sub574,124
575,train_sub575,124
576,train_sub576,201
577,train_sub577,201
578,train_sub578,195
579,train_sub579,195
580,train_sub580,135
581,train_sub581,237
582,train_sub582,237
583,train_sub583,77
584,train_sub584,77
585,train_sub585,30
586,train_sub586,30
587,train_sub587,30
588,train_sub588,30
589,train_sub589,30
590,train_sub590,249
591,train_sub591,249
592,train_sub592,249
593,train_sub593,0
594,train_sub594,0
595,train_sub595,280
596,train_sub596,280
597,train_sub597,280
598,train_sub598,81
599,train_sub599,81
600,train_sub600,81
601,train_sub601,175
602,train_sub602,175
603,train_sub603,229
604,train_sub604,229
605,train_sub605,133
606,train_sub606,86
607,train_sub607,86
608,train_sub608,306
609,train_sub609,306
610,train_sub610,306
611,train_sub611,137
612,train_sub612,137
613,train_sub613,288
614,train_sub614,138
615,train_sub615,281
616,train_sub616,281
617,train_sub617,98
618,train_sub618,98
619,train_sub619,98
620,train_sub620,108
621,train_sub621,108
622,train_sub622,149
623,train_sub623,149
624,train_sub624,149
625,train_sub625,226
626,train_sub626,157
627,train_sub627,120
628,train_sub628,120
629,train_sub629,232
630,train_sub630,232
631,train_sub631,44
632,train_sub632,44
633,train_sub633,173
634,train_sub634,173
635,train_sub635,173
636,train_sub636,129
637,train_sub637,39
638,train_sub638,206
639,train_sub639,206
640,train_sub640,206
641,train_sub641,263
642,train_sub642,334
643,train_sub643,334
644,train_sub644,95
645,train_sub645,95
646,train_sub646,290
647,train_sub647,290
648,train_sub648,323
649,train_sub649,323
650,train_sub650,274
651,train_sub651,274
652,train_sub652,274
653,train_sub653,313
654,train_sub654,313
655,train_sub655,313
656,train_sub656,79
657,train_sub657,79
658,train_sub658,297
659,train_sub659,297
660,train_sub660,297
661,train_sub661,96
662,train_sub662,96
663,train_sub663,96
664,train_sub664,196
665,train_sub665,196
666,train_sub666,166
667,train_sub667,166
668,train_sub668,166
669,train_sub669,353
670,train_sub670,145
671,train_sub671,145
672,train_sub672,145
673,train_sub673,145
674,train_sub674,247
675,train_sub675,247
676,train_sub676,40
677,train_sub677,40
678,train_sub678,56
679,train_sub679,56
680,train_sub680,56
681,train_sub681,267
682,train_sub682,267
683,train_sub683,132
684,train_sub684,132
685,train_sub685,132
686,train_sub686,132
687,train_sub687,346
688,train_sub688,346
689,train_sub689,346
690,train_sub690,43
691,train_sub691,320
692,train_sub692,351
693,train_sub693,34
694,train_sub694,34
695,train_sub695,48
696,train_sub696,148
697,train_sub697,148
698,train_sub698,148
699,train_sub699,150
700,train_sub700,150
701,train_sub701,258
702,train_sub702,258
703,train_sub703,202
704,train_sub704,202
705,train_sub705,202
706,train_sub706,202
707,train_sub707,336
708,train_sub708,336
709,train_sub709,277
710,train_sub710,3
711,train_sub711,3
712,train_sub712,270
713,train_sub713,125
714,train_sub714,125
715,train_sub715,125
716,train_sub716,65
717,train_sub717,65
718,train_sub718,65
719,train_sub719,354
720,train_sub720,354
721,train_sub721,354
722,train_sub722,347
723,train_sub723,347
724,train_sub724,347
725,train_sub725,144
726,train_sub726,299
727,train_sub727,228
728,train_sub728,284
729,train_sub729,284
730,train_sub730,284
731,train_sub731,85
732,train_sub732,85
733,train_sub733,18
734,train_sub734,18
735,train_sub735,75
736,train_sub736,75
737,train_sub737,244
738,train_sub738,244
739,train_sub739,244
740,train_sub740,244
741,train_sub741,244
742,train_sub742,244
743,train_sub743,203
744,train_sub744,37
745,train_sub745,139
746,train_sub746,139
747,train_sub747,139
748,train_sub748,321
749,train_sub749,321
750,train_sub750,194
751,train_sub751,194
752,train_sub752,243
753,train_sub753,243
754,train_sub754,243
755,train_sub755,140
756,train_sub756,140
757,train_sub757,5
758,train_sub758,5
759,train_sub759,5
760,train_sub760,69
761,train_sub761,69
762,train_sub762,82
763,train_sub763,82
764,train_sub764,305
765,train_sub765,305
766,train_sub766,6
767,train_sub767,6
768,train_sub768,6
769,train_sub769,134
770,train_sub770,134
771,train_sub771,49
772,train_sub772,188
773,train_sub773,188
774,train_sub774,296
775,train_sub775,296
776,train_sub776,296
777,train_sub777,296
778,train_sub778,184
779,train_sub779,184
780,train_sub780,46
781,train_sub781,46
782,train_sub782,46
783,train_sub783,240
784,train_sub784,240
785,train_sub785,240
786,train_sub786,16
787,train_sub787,16
788,train_sub788,16
789,train_sub789,208
790,train_sub790,208
791,train_sub791,208
792,train_sub792,215
793,train_sub793,215
794,train_sub794,121
795,train_sub795,121
796,train_sub796,261
797,train_sub797,261
798,train_sub798,261
799,train_sub799,104
